open;high;low;close;volume
791.98;792.89;786.33;791.4;1303460
795.27;797.1;793.26;796.87;1349896
798.39;810.89;795.43;808.02;1989537
807.93;810.6;803.72;807.99;1145724
805.22;808.42;801.0101;802.84;1177660
798.77;801.75;788.05;788.48;1887633
784.52;800.17;783.5;798.82;1863737
794.01;795.79;784.33;788.72;1809044
787.53;796.33;787.53;790.46;1313912
790.01;803.645;788.66;801.23;1566360
799.02;799.02;793.62;797.97;2130571
801.11;803.99;793.56;795.39;1149522
800.0;802.75;798.26;799.78;1050041
801.26;805.91;796.03;805.03;1348476
810.0;819.06;807.71;815.95;1759290
815.14;817.0;812.73;814.96;1411673
809.82;810.08;800.45;802.65;1472732
801.83;813.49;801.83;810.73;1367271
804.08;810.25;802.7803;810.06;1470280
807.23;813.91;800.855;802.64;1349974
803.6;808.09;801.5;804.06;1660201
802.55;803.54;796.23;800.38;1489212
805.0;806.5;799.67;802.79;1258706
806.0;808.5;800.71;801.23;1213820
804.08;806.945;800.51;803.08;1099909
805.93;805.94;796.82;800.71;1163899
803.93;817.38;802.24;814.17;1496115
814.17;819.86;807.37;809.57;1721575
811.96;814.5;808.5545;811.77;907876
806.07;806.56;798.62;804.08;1368981
807.45;810.09;802.32;804.6;1111934
805.99;813.49;803.83;806.84;1056367
814.21;828.81;813.33;821.49;2289265
824.52;829.81;823.205;827.09;1500142
827.56;828.465;820.55;821.63;1393870
820.0;824.29;818.31;824.06;1615814
830.09;837.94;829.04;835.74;1447616
838.5;838.5;825.3005;828.55;1890712
827.12;827.71;816.35;822.1;1794868
823.01;826.58;814.61;817.35;2973486
829.94;839.0;817.0;819.56;4354884
822.43;822.63;808.0;809.9;2242679
810.87;813.96;798.26;805.48;2355890
806.76;806.76;785.0;788.42;2350736
784.5;790.0;778.63;782.19;2175216
771.3;788.48;771.0043;781.1;1970603
794.95;805.0;792.9;802.03;1992570
802.03;816.04;799.62;811.98;1769069
801.83;811.71;792.035;805.59;3098510
810.0;810.06;768.23;780.29;5909609
776.81;777.29;765.54;771.75;3592641
771.76;771.78;743.59;753.22;3688274
765.47;780.2376;765.22;775.16;2943889
770.42;783.5;766.33;779.98;1798360
782.5;788.9;779.85;786.16;1533679
787.17;791.29;775.35;775.97;1806264
778.1;786.55;776.3;784.8;1630835
788.99;793.77;783.74;785.0;1394174
789.52;789.52;772.65;779.0;1312981
782.61;782.9;778.19;780.23;613549
778.35;799.74;778.1;785.79;2575432
788.38;796.44;785.34;789.44;1561981
789.1;791.51;773.145;775.88;2279054
778.55;778.6;753.36;764.33;2867074
761.9;770.5;759.0;764.46;1718846
770.0;780.0;766.9686;778.22;1688473
780.19;785.28;773.32;776.18;1734099
779.95;792.0;773.53;791.47;2029415
792.95;799.0;787.905;795.17;1612531
799.3;809.95;798.05;809.45;1904463
804.82;811.35;804.5311;807.9;1628602
812.39;824.3;811.94;815.34;2128210
815.92;824.26;812.78;817.89;1799654
817.36;823.0;812.0;815.65;1769719
818.31;819.2;808.12;809.84;2598866
809.28;816.22;804.5;812.5;1263581
813.37;816.49;811.0;815.2;1271883
815.72;815.72;805.1;812.2;1459628
809.1;811.07;806.03;809.68;1132119
808.01;810.9696;805.11;807.8;765537
808.68;816.0;805.8;809.93;975962
813.33;813.33;802.44;804.57;1214756
802.33;805.75;798.144;802.88;1057392
803.21;803.285;789.62;792.45;1735879
800.62;811.435;796.89;808.01;1959033
809.89;813.43;804.11;807.77;1515339
807.5;813.74;805.92;813.02;1340535
814.99;828.96;811.5;825.21;2017097
826.37;830.43;821.62;827.18;1408924
827.07;829.41;823.14;826.01;1197442
826.62;829.9;821.47;829.86;1325394
828.38;830.38;821.01;829.53;1350308
831.0;834.65;829.52;830.94;1290182
830.0;830.18;823.2001;827.46;1440905
829.8;829.81;824.08;829.02;1027698
829.0;832.9999;823.96;824.37;1070454
829.09;829.24;824.6;828.17;1306183
831.61;845.5428;828.7;844.43;2457377
846.98;851.52;842.28;849.53;1688375
853.55;858.7936;849.74;858.45;1662148
859.05;861.0;850.5201;856.98;3493251
859.0;867.0;841.9;845.03;3752497
837.06;837.23;821.03;823.83;3516933
819.5;823.07;813.4;820.19;2020180
824.0;824.0;812.25;815.24;2251047
815.0;824.56;812.051;818.26;1689179
823.13;826.13;819.35;820.13;1528095
820.92;822.39;814.29;821.62;1350875
825.5;831.92;823.2926;829.23;1666605
830.53;834.25;825.11;829.88;1302225
831.73;831.98;826.5;830.06;1194238
832.95;837.15;830.51;834.85;1415128
837.7;841.735;836.246;838.96;1295708
839.77;842.0;835.83;840.03;1363345
838.81;841.7725;836.22;837.32;1357185
838.5;842.69;837.26;842.17;1005084
841.31;846.94;839.78;846.55;1461210
847.99;852.2;846.55;849.27;1261062
848.0;853.79;846.7101;851.36;1224889
851.08;852.62;842.5;851.0;1386681
847.65;848.36;842.9601;847.81;1346189
844.95;850.67;843.01;849.67;1010333
847.35;848.83;841.4422;844.93;1383119
851.38;858.0;849.02;856.75;1818671
856.31;856.49;848.72;849.85;1250938
848.94;850.82;844.705;849.08;1006612
846.86;848.94;841.17;847.27;1047872
847.26;853.33;845.52;851.15;1038696
853.12;856.93;851.25;853.64;1029834
853.69;860.71;852.67;857.84;1347697
862.7;864.229;857.61;861.405;1336585
860.83;867.13;860.82;864.58;1166605
863.75;867.58;860.13;865.91;1061692
867.94;869.88;861.295;868.39;1332885
870.53;872.71;867.52;870.0;1104452
873.68;874.42;868.37;872.37;1868252
869.48;870.34;864.665;867.91;1542199
870.06;873.47;847.687;850.14;2537978
849.48;855.35;847.0;849.8;1366749
841.39;841.69;833.0;839.65;3287669
842.0;844.0;829.1;835.14;2105682
828.09;841.38;824.3;838.51;1935211
839.69;845.4;832.265;840.63;1519202
842.75;851.585;841.38;849.87;1457347
851.98;852.0;846.77;849.48;949398
846.83;849.56;845.2445;847.8;1440982
848.75;859.0;847.5298;856.75;1969402
848.0;853.0;847.505;852.57;1348494
854.71;860.59;847.52;848.91;1855153
849.5;853.59;844.0;845.095;1533564
845.0;845.88;837.3;842.1;1111610
841.54;846.7372;840.79;841.7;1046215
841.7;844.63;834.6;839.88;974343
838.46;843.72;837.59;841.46;1135775
841.04;843.73;837.8503;840.18;1073650
841.38;855.64;841.03;855.13;1049125
852.54;857.39;851.25;853.99;936201
857.385;860.2;853.5275;856.51;1080336
859.74;863.93;857.5;860.08;1188843
860.62;862.44;857.73;858.95;1172870
868.44;879.96;866.11;878.93;1696483
882.26;892.25;879.2801;888.84;2038032
891.39;892.99;885.15;889.14;1323297
890.0;893.3774;887.18;891.44;2342303
929.0;935.9;923.22;924.52;3845857
924.15;935.82;920.8;932.82;2327782
933.27;942.985;931.0;937.09;1751292
936.05;950.2;935.21;948.45;1824759
950.29;959.14;947.37;954.72;1938260
956.72;958.4395;948.0986;950.28;1615548
947.45;960.99;947.395;958.69;1876690
961.33;962.2;954.4;956.71;1687942
956.22;956.71;949.84;954.84;1145969
951.29;957.99;948.61;955.89;1031093
957.85;957.98;952.06;955.14;1214851
955.29;962.7;952.82;959.22;1337697
963.55;965.8955;960.35;964.61;1101544
959.7;960.99;940.06;942.17;2449058
943.2;954.18;941.27;950.5;1800465
952.82;959.56;952.0;954.65;1360299
957.0;964.82;956.56;964.07;1387392
969.96;974.51;964.5;970.55;1545421
975.26;978.115;971.6299;977.61;1142488
979.0;995.78;977.82;991.86;1954149
992.0;996.39;987.36;993.27;1636416
992.5;997.62;991.3601;996.17;1516685
996.21;999.6;981.68;987.09;1724095
990.96;993.14;981.29;988.29;1306384
988.59;996.48;987.07;996.12;1735469
997.89;1007.4011;995.45;1003.88;1378916
1003.31;1008.61;994.8;996.68;1552114
998.82;1003.91;995.81;1001.59;1374097
1004.23;1005.6;996.62;1004.28;1687925
1005.49;1005.5;953.37;970.12;3647857
958.72;968.0;936.795;961.81;4202109
972.04;977.91;962.01;970.5;2005356
975.5;979.7;959.5103;967.93;1505486
948.02;960.6775;940.37;960.18;2427639
957.91;959.95;948.7;958.62;2559207
969.65;979.3;968.2;975.22;1468837
975.31;980.79;968.2;968.99;1297287
970.79;979.67;969.16;978.59;1161607
976.87;980.5;973.3148;976.62;1009476
975.5;986.62;974.46;986.09;1563985
990.0;993.99;970.33;972.09;1517912
961.6;967.22;947.09;948.09;2443602
950.66;963.24;936.16;961.01;2745568
951.35;951.66;929.6;937.82;3206674
943.99;944.9995;929.61;929.68;2287662
933.22;934.24;915.31;919.46;1694811
924.2;936.29;918.6305;932.26;2094055
925.0;936.14;919.85;927.69;2014855
930.985;944.66;929.79;940.81;1663302
941.95;953.13;941.95;951.0;1451460
950.52;954.89;945.12;953.53;1461247
960.86;969.63;957.04;967.66;1602115
970.8;978.7;964.8;968.85;1524571
974.0;977.54;970.15;976.91;1079608
976.32;983.35;970.8;975.96;1660464
973.36;990.85;972.04;986.95;1413335
990.01;995.6;987.01;992.77;1412148
997.0;998.68;984.62;992.19;1418385
989.0;995.11;984.17;993.84;1463322
994.1;1006.19;990.2728;998.31;3984532
970.7;976.73;963.8;969.03;5933602
972.78;973.95;960.23;965.31;2221625
969.18;969.52;937.06;952.51;3717900
947.99;961.79;945.31;958.33;1813794
960.0;961.1925;941.725;945.5;2293389
947.81;954.49;944.96;946.56;1332456
948.37;949.1;932.521;947.64;2039418
949.1;950.0;939.44;940.3;1123921
943.95;947.54;939.795;945.79;1254574
947.52;948.96;943.5;945.75;1445754
944.29;952.49;942.48;944.19;1505064
938.45;943.76;933.92;940.08;1400852
935.0;936.3;921.7768;923.59;2707393
923.71;933.36;921.22;930.09;1616708
939.07;941.04;934.485;938.93;1150612
941.03;943.07;936.64;938.08;1106484
941.25;949.9;940.0391;944.27;1345261
942.95;943.81;927.64;927.66;1695694
926.98;931.02;923.45;926.18;1337404
925.77;928.25;918.6;920.87;1301243
926.96;941.9617;926.17;940.4;1775099
937.0;945.425;935.24;942.58;1134464
943.71;946.31;930.74;936.89;1294559
939.21;940.73;930.1;930.5;1187313
931.88;934.85;926.11;928.13;1049397
919.95;938.19;919.31;935.75;1158576
935.67;945.86;934.05;943.63;1120342
946.3;957.195;946.25;955.24;1693313
957.47;958.33;950.28;951.99;1042885
946.86;951.3854;935.6;941.48;1460830
943.87;944.5;932.68;942.02;1391529
944.25;950.4965;937.53;949.89;1116575
949.7;950.7;940.01;941.41;999916
947.2;952.68;941.0;943.29;1337365
946.92;948.085;937.5;946.65;1283580
945.5;952.85;944.74;950.44;1094680
946.0;948.03;938.356;940.13;1424508
940.09;941.75;931.25;935.29;1951619
935.01;936.86;925.4;929.75;1456186
933.41;937.94;926.66;936.86;1232224
937.73;950.0;937.5;947.54;1922708
948.13;952.8;939.38;947.55;1307395
942.77;950.0;940.835;943.26;1074806
939.45;939.75;924.5101;934.28;1873375
936.69;944.08;935.12;937.43;1672749
942.74;965.43;941.95;959.9;2334635
956.25;966.18;955.55;964.81;1400931
966.0;975.81;966.0;973.72;2031092
975.65;977.74;961.95;967.47;1539122
967.56;972.44;962.705;972.08;1083948
971.76;974.4;965.61;966.78;1057769
972.79;986.5085;970.27;985.19;1780946
980.0;994.26;978.51;993.64;1553033
995.0;1000.46;991.5;992.31;1295467
995.3;997.47;981.11;987.8;1163400
989.04;1007.565;987.94;1005.65;1814999
1003.84;1011.5388;1001.1;1005.65;1530664
1009.11;1014.76;1007.06;1007.87;1327632
1009.63;1012.0;1001.52;1009.35;1071023
1007.44;1014.56;1006.05;1011.0;1012998
1011.05;1016.3091;1005.32;1012.74;1279780
1004.75;1007.322;997.3;1001.84;1714243
1007.05;1008.65;1002.27;1005.07;1606031
1005.18;1005.7938;983.1;985.54;1639294
986.5;989.26;977.08;988.49;1445129
986.27;994.43;977.722;991.46;1528710
998.47;1006.51;990.47;991.42;2369838
1030.99;1063.62;1026.85;1033.67;5184143
1029.16;1039.83;1022.33;1033.13;2340172
1033.0;1041.0;1026.295;1033.04;1516278
1036.315;1047.86;1034.0;1042.595;2163073
1039.99;1045.52;1028.66;1042.97;1334697
1042.75;1050.66;1037.65;1049.99;1388461
1049.1;1052.59;1042.0;1042.68;914748
1049.65;1053.41;1043.0;1052.39;1305229
1050.05;1062.691;1047.05;1058.29;1214600
1048.0;1050.88;1035.85;1047.72;1794575
1043.87;1046.63;1041.22;1044.15;972127
1040.8;1048.74;1039.26;1041.2;940721
1037.72;1042.3;1029.33;1041.64;1050566
1035.0;1039.63;1030.76;1036.41;905262
1038.75;1051.76;1038.0;1048.47;1188392
1049.8;1051.0;1033.73;1035.89;1335610
1036.0;1038.695;1032.675;1034.66;876321
1040.04;1050.39;1039.14;1050.3;1110341
1051.16;1055.43;1047.25;1051.92;726898
1054.39;1060.07;1051.92;1056.52;825369
1058.57;1073.035;1054.7713;1072.01;1771491
1073.99;1080.0;1054.54;1063.29;1821171
1056.18;1058.77;1029.6533;1037.38;2793332
1039.94;1044.1399;1030.07;1036.17;2254590
1030.41;1037.245;1016.9;1025.07;1888081
1027.8;1031.34;1009.22;1011.87;1938861
1010.99;1036.68;1002.315;1019.6;1949865
1016.52;1039.58;1015.31;1032.72;1435549
1036.07;1048.92;1035.36;1044.57;1543285
1051.81;1056.42;1045.86;1049.38;1558472
1051.11;1056.0;1044.12;1051.97;1162694
1050.0;1062.5;1044.87;1048.77;1694061
1052.08;1055.48;1046.58;1051.39;1384038
1055.49;1067.08;1053.595;1057.47;1548139
1063.78;1075.25;1060.0901;1072.0;3187985
1076.45;1086.49;1070.37;1085.09;1514601
1083.02;1084.975;1072.2704;1079.78;1317519
1080.92;1081.235;1068.6;1073.56;1436391
1075.39;1077.52;1069.0;1070.85;1282025
1070.0;1071.72;1067.64;1068.86;889446
1068.64;1068.86;1058.6401;1065.85;918767
1066.6;1068.27;1058.38;1060.2;1116203
1062.25;1064.84;1053.38;1055.95;994249
1055.49;1058.05;1052.7;1053.4;1180340
1053.02;1075.98;1053.02;1073.21;1588268
1073.93;1096.1;1073.43;1091.52;1565945
1097.09;1104.0765;1094.26;1095.76;1302569
1103.45;1113.5799;1101.795;1110.29;1512526
1111.0;1119.16;1110.0;1114.21;1232221
1118.44;1118.44;1108.201;1112.79;1340381
1107.0;1112.78;1103.9842;1110.14;1036655
1112.31;1114.85;1106.48;1112.05;1121216
1110.1;1131.3025;1108.0101;1130.65;1929306
1140.31;1148.88;1126.66;1130.7;1823100
1136.36;1139.32;1123.49;1139.1;1391510
1139.35;1140.585;1124.465;1135.97;1374873
1138.03;1143.7797;1132.5;1143.5;1527554
1143.82;1166.88;1141.82;1164.16;1477520
1170.62;1178.51;1167.25;1176.17;1956865
1184.98;1187.05;1167.401;1171.29;1856429
1180.71;1185.0;1171.84;1182.14;1499247
1187.53;1187.56;1168.03;1187.56;2108502
1188.0;1198.0;1184.06;1186.48;1574708
1177.72;1187.93;1174.51;1177.37;1866883
1183.81;1186.32;1172.1;1182.22;1801135
1175.99;1187.45;1169.36;1181.59;3675709
1127.42;1131.3;1111.17;1119.2;5892122
1100.61;1114.99;1056.74;1062.39;4177469
1033.98;1087.375;1030.01;1084.43;3831524
1084.97;1086.53;1054.62;1055.41;2597094
1059.87;1063.93;1004.7;1007.71;3339601
1025.88;1051.72;997.0;1046.27;4917970
1056.67;1065.57;1045.49;1054.56;2812011
1050.0;1061.22;1046.92;1054.14;1579258
1054.32;1075.47;1049.8;1072.7;2065202
1083.45;1094.1;1067.23;1091.36;1869763
1093.38;1108.31;1091.55;1095.5;1997405
1092.76;1116.29;1090.0;1103.59;1687656
1109.1;1136.2;1107.51;1113.75;2074321
1119.17;1125.46;1105.15;1109.9;1400536
1118.66;1129.0;1108.4373;1128.09;1264638
1131.86;1144.2;1129.34;1143.7;1545619
1143.7;1144.25;1116.7901;1117.51;2148159
1122.0;1127.65;1103.0;1103.92;2464619
1109.54;1111.2732;1067.285;1071.41;2766856
1057.98;1086.89;1050.11;1084.14;2508145
1078.13;1101.18;1072.2701;1094.76;1432369
1102.1025;1105.63;1094.5;1100.9;1169068
1092.82;1116.2;1089.9102;1115.04;1537429
1117.2;1131.44;1117.2;1129.38;1693133
1139.5;1161.0;1134.29;1160.84;2133087
1165.05;1178.16;1159.2;1165.93;2215304
1171.83;1178.0;1134.57;1139.91;2156999
1145.8;1159.7599;1142.35;1148.89;2093482
1149.57;1162.5;1135.66;1150.61;1669094
1155.35;1156.81;1131.36;1134.42;2932759
1117.76;1119.37;1088.92;1100.07;3182796
1098.4;1105.55;1082.42;1095.8;2729857
1092.57;1108.7;1087.21;1094.0;2244865
1080.01;1083.92;1049.64;1053.15;3465608
1051.37;1066.7799;1024.87;1026.55;2493971
1050.6;1059.27;1010.58;1054.09;3299151
1063.9;1064.54;997.62;1006.94;3040809
1001.91;1024.99;984.0;1005.18;3884943
1011.21;1048.05;1004.04;1037.14;3466876
1027.62;1039.53;994.25;1012.63;3253387
1016.15;1025.0;997.245;1018.68;2566146
998.23;1032.74;996.51;1029.71;2536198
1046.39;1046.71;1024.0;1032.64;1791761
1023.1;1036.0;1006.2501;1009.95;2006683
1020.04;1044.59;1019.2;1020.09;1661012
1030.26;1041.21;1015.41;1036.5;1836678
1032.0;1035.87;1019.2;1025.06;1703015
1031.47;1044.65;1026.05;1037.29;1644794
1046.89;1052.98;1030.15;1036.04;1270461
1045.55;1051.4295;1033.92;1046.1;1488822
1061.2;1085.0;1057.0901;1079.36;2729197
1079.01;1082.0;1070.515;1075.39;1556298
1069.02;1097.51;1069.02;1089.45;1994247
1084.27;1094.75;1072.1;1077.32;2121692
1082.98;1088.0;1066.68;1073.81;3479496
1059.2;1064.49;1012.855;1022.64;6411038
1029.75;1036.07;1017.01;1022.99;2893047
1033.22;1052.02;1020.45;1043.31;2546332
1045.54;1051.695;1027.59;1031.45;2037263
1034.42;1038.37;1018.3;1018.58;1724632
1016.3;1041.73;1010.61;1040.75;1766256
1034.0;1043.98;1023.16;1026.05;1734872
1025.37;1030.69;1007.89;1026.3;1964066
1019.61;1051.8792;1018.05;1051.0;1844600
1053.89;1065.0;1050.2697;1059.46;1719971
1064.62;1065.23;1051.641;1058.59;1301524
1064.1;1094.0;1062.11;1088.95;2357979
1095.0;1109.41;1093.88;1105.47;1820676
1100.41;1109.01;1097.22;1103.38;1525218
1105.57;1118.15;1104.8;1106.6;1966893
1096.9;1099.12;1078.78;1084.87;1786926
1085.09;1094.3825;1081.6301;1084.09;1281406
1081.46;1091.0;1076.42;1081.26;1286907
1066.0;1073.73;1064.68;1069.64;1774149
1079.0;1093.3;1078.0;1084.01;1258999
1089.8;1091.8;1072.26;1075.31;1111299
1070.0;1088.0;1066.96;1085.96;1186998
1086.9;1087.12;1072.3;1085.45;1030194
1086.55;1089.57;1082.6;1084.08;1111161
1076.0;1081.34;1063.08;1068.07;1803805
1073.48;1078.99;1066.55;1077.47;1434282
1082.0;1110.0;1078.0;1100.0;3968362
1112.87;1138.16;1112.0101;1135.0;3160100
1138.5;1157.8573;1137.0;1153.04;2237701
1154.66;1161.0964;1147.46;1151.02;1648222
1152.77;1154.7139;1136.32;1146.95;1746719
1144.58;1145.865;1126.12;1134.42;1805388
1131.21;1138.78;1123.23;1132.71;1364226
1132.94;1147.74;1131.3986;1140.9;1239770
1141.02;1148.75;1141.02;1148.19;1304612
1152.28;1155.64;1143.38;1144.23;1715074
1152.21;1165.99;1150.6;1160.11;1771120
1159.92;1163.9088;1153.69;1159.27;2221891
1152.69;1184.13;1151.0;1183.58;1651913
1170.11;1182.81;1161.61;1178.69;2364127
1183.3;1201.49;1182.03;1184.07;2584260
1185.51;1190.333;1163.48;1169.44;2248277
1171.495;1175.0;1159.65;1169.29;1711003
1155.0;1155.99;1119.9;1139.28;2884131
1144.14;1146.87;1129.0;1132.62;1734414
1136.0;1146.21;1116.7;1116.94;1726866
1112.39;1134.0;1106.0724;1126.78;1486675
1132.31;1141.359;1127.02;1129.19;1578116
1115.35;1142.99;1106.6;1142.11;1161040
1149.42;1149.91;1114.43;1116.28;822394
1124.6;1144.14;1123.12;1141.29;1429710
1141.77;1156.2;1137.24;1155.08;1090967
1160.0;1167.93;1157.2345;1167.28;1079201
1169.99;1173.5;1162.56;1167.14;1066704
1155.62;1180.44;1155.3745;1171.46;1662633
1174.86;1201.986;1173.1;1201.26;2207431
1202.8;1210.44;1195.29;1204.42;1631857
1203.81;1208.71;1193.4011;1196.51;1339237
1182.74;1218.76;1182.0;1213.08;2008133
1208.53;1221.59;1204.56;1212.91;1947397
1206.65;1216.48;1197.7344;1199.1;1916892
1199.24;1210.765;1196.59;1197.88;1898376
1195.66;1215.1;1192.01;1211.0;3272304
1271.0;1275.0;1244.14;1258.15;5380032
1252.6199;1278.24;1249.05;1275.94;2575437
1267.18;1287.4;1263.0;1285.5;2734302
1289.12;1291.44;1244.495;1252.89;2418090
1245.05;1252.89;1224.17;1230.04;2194837
1231.71;1241.21;1216.19;1227.22;1969111
1239.11;1245.9003;1224.94;1232.99;1849740
1218.5;1244.41;1218.06;1241.13;1735180
1245.18;1246.52;1229.42;1238.16;1063244
1241.61;1242.4616;1230.53;1237.67;1105916
1252.01;1266.08;1251.8;1255.84;2125256
1256.72;1271.72;1252.12;1261.33;1718664
1262.73;1271.9648;1260.1011;1264.46;1366318
1259.18;1261.2;1247.1635;1252.51;1334387
1251.2;1265.97;1247.03;1248.64;1380882
1252.5;1260.59;1239.54;1258.14;1403991
1244.28;1251.98;1226.245;1232.22;1852558
1241.99;1243.6974;1219.63;1224.06;1608799
1222.04;1226.9547;1204.0;1215.85;1654629
1220.66;1225.91;1208.7;1221.95;1111173
1223.02;1232.76;1215.03;1217.41;1154093
1214.22;1226.53;1213.22;1221.75;1114832
1219.88;1235.17;1219.3488;1221.16;1233347
1226.0;1237.4;1221.42;1236.75;1222653
1244.14;1257.87;1240.68;1256.27;1428992
1255.9;1256.56;1242.97;1245.86;1366516
1255.0;1267.17;1252.8;1264.65;1846615
1263.4;1269.49;1247.21;1254.44;1505219
1252.21;1252.545;1225.7547;1231.8;2115424
1222.52;1227.87;1206.56;1211.31;2072869
1209.22;1214.87;1175.34;1199.1;2699394
1198.57;1198.9865;1163.61;1183.99;2342722
1172.0;1188.545;1169.27;1177.59;1633190
1184.2;1186.66;1170.61;1175.06;1383938
1171.1;1190.94;1165.95;1189.99;1462688
1182.0;1190.694;1166.16;1171.6;1785833
1179.7;1187.86;1169.22;1182.14;2003418
1188.0;1188.0;1173.52;1177.98;1208767
1177.77;1181.82;1158.455;1159.83;1704790
1162.66;1181.33;1161.425;1167.11;1615701
1168.96;1176.27;1158.6152;1174.27;1298084
1180.67;1194.0;1176.25;1191.57;1462455
1194.92;1196.58;1172.06;1172.12;4561119
1159.41;1185.19;1151.5;1179.56;1557479
1184.25;1196.8599;1174.09;1193.89;1657809
1193.69;1207.24;1185.3969;1194.06;1882524
1200.0;1216.86;1198.05;1207.36;1813652
1204.09;1208.45;1197.83;1207.08;1780759
1213.0;1224.2;1203.19;1208.53;1659364
1206.67;1224.52;1199.66;1207.64;2008956
1212.0;1214.18;1202.15;1211.53;1312686
1205.03;1205.9;1163.845;1177.07;2328778
1176.0;1182.0;1154.32;1167.83;1593012
1160.0;1175.86;1135.4;1155.92;2309539
1151.31;1161.55;1144.17;1145.17;1684728
1136.4;1137.02;1091.51;1092.16;2949006
1079.04;1116.055;1075.89;1090.74;3384775
1119.64;1125.8299;1095.025;1120.54;2468920
1118.0;1121.795;1098.22;1102.44;1503956
1113.48;1136.37;1111.75;1133.08;1918879
1140.0;1147.0;1114.0;1127.59;1782614
1130.0;1132.35;1086.34;1097.91;2307596
1103.71;1120.95;1097.03;1105.18;2064289
1112.51;1121.69;1100.0;1111.37;1355842
1091.29;1118.0;1079.01;1114.91;1884255
1115.0;1116.62;1055.06;1057.12;2464295
1080.3;1117.82;1075.545;1103.59;3647814
1048.33;1117.0;1042.23;1083.75;5321883
1096.54;1108.83;1007.2;1034.73;4064452
1020.01;1050.9;1013.97;1049.51;2988418
1068.2;1108.0;1068.2;1090.58;3545821
1091.4;1099.9;1077.82;1085.98;2006575
1089.0;1098.0;1067.66;1071.49;2172215
1072.53;1073.35;1034.0;1055.73;2267870
1055.02;1079.82;1053.61;1069.57;1433013
1083.49;1109.9299;1080.59;1108.24;2169392
1107.3;1108.22;1084.36;1094.63;1685193
1084.02;1088.35;1064.26;1077.02;1743298
1073.13;1074.1;1040.35;1049.36;1700091
1054.81;1066.665;1040.4;1047.97;1287475
1060.0;1065.79;1041.11;1054.58;1733302
1051.46;1078.87;1041.2925;1071.05;2079154
1065.23;1072.44;1054.9;1068.27;1768308
1063.39;1068.0;1022.8692;1027.42;2284191
1007.29;1037.35;1002.21;1030.45;2722934
1045.31;1054.705;1039.455;1043.43;1485172
1033.5;1043.0;1028.52;1030.1;708859
1044.0;1057.0;1039.77;1055.94;1577941
1051.34;1066.76;1045.5;1052.28;1652433
1057.46;1092.8575;1042.95;1091.79;2302121
1083.53;1100.15;1082.0;1094.58;1550523
1095.63;1109.65;1083.18;1109.65;2983340
1132.16;1135.0;1111.73;1116.36;2876449
1112.99;1114.24;1060.775;1062.47;2281485
1045.0;1079.42;1042.48;1078.08;2371825
1072.23;1085.03;1039.37;1046.58;2134111
1042.94;1059.6;1033.0;1053.18;1682646
1066.94;1070.4;1050.1;1061.65;1692576
1077.08;1091.7325;1071.97;1073.73;1447973
1075.67;1088.42;1064.994;1073.54;1249403
1060.02;1071.72;1049.37;1051.71;1817949
1047.01;1062.38;1016.63;1025.65;2496551
1034.0;1059.69;1030.48;1043.41;2182019
1047.29;1075.71;1019.43;1035.46;2913237
1026.0;1047.44;1007.8648;1023.58;2683670
1032.04;1037.67;981.19;991.25;5232490
984.32;1012.1195;977.6599;984.67;1817955
997.99;1048.45;992.645;1047.85;2315862
1026.2;1053.34;1007.0;1052.9;2299806
1059.5;1064.23;1042.0;1046.68;1718352
1057.83;1062.99;1033.0387;1044.96;1655504
1027.2;1060.79;1025.275;1054.68;1593395
1050.67;1066.26;1022.37;1025.47;2097957
1042.56;1080.0;1036.86;1078.07;2301428
1080.97;1082.7;1062.64;1075.92;2372667
1086.0;1093.35;1068.3486;1085.37;1770654
1087.99;1091.64;1074.37;1081.65;1349912
1074.94;1079.81;1064.68;1078.83;1329861
1069.9;1073.37;1056.43;1064.47;1543238
1053.34;1058.45;1048.55;1051.51;1424486
1058.01;1088.27;1054.44;1086.51;1875852
1090.0;1102.36;1088.01;1089.51;1914041
1087.99;1100.7;1083.255;1099.12;1244801
1108.59;1118.0;1099.2834;1107.3;2244569
1096.0;1098.97;1070.89;1078.63;1981594
1086.86;1092.95;1067.57;1084.41;1259738
1082.51;1088.0;1070.02;1084.0;1455948
1094.23;1103.36;1091.8012;1101.51;1163788
1090.07;1093.365;1074.61;1079.86;1466714
1081.04;1084.73;1066.02;1070.06;985248
1077.36;1099.52;1076.64;1097.99;1472647
1112.24;1127.67;1105.25;1125.89;2011572
1122.29;1134.4;1114.25;1118.62;1655813
1119.01;1142.34;1117.51;1141.42;3920591
1129.63;1152.77;1123.6;1151.87;4114790
1149.27;1154.0;1118.36;1122.89;2412820
1111.82;1111.99;1093.59;1105.91;1914877
1094.88;1105.095;1094.24;1102.38;1088327
1103.75;1113.43;1100.0;1102.12;924881
1111.01;1132.86;1111.01;1127.58;1751771
1133.04;1142.8496;1126.0;1128.63;1402087
1125.0;1136.13;1117.09;1129.2;1055297
1139.3;1139.3;1116.72;1119.63;1391348
1116.64;1129.64;1116.64;1126.51;1099259
1128.88;1130.93;1111.75;1120.59;1204533
1118.78;1119.15;1097.98;1104.21;1663980
1109.7;1117.25;1100.5;1116.56;1471783
1121.93;1125.4;1114.11;1117.33;1310362
1114.37;1126.435;1106.7;1122.01;1751261
1114.01;1125.73;1108.56;1122.89;1104881
1119.0;1133.99;1118.41;1126.55;1371355
1131.0;1150.0;1131.0;1148.52;1704258
1154.56;1165.52;1138.25;1153.42;1774467
1156.0;1176.4899;1153.02;1169.19;2004723
1171.76;1174.74;1163.05;1164.94;1180052
1160.5;1163.58;1141.715;1150.85;1504328
1133.9;1153.4504;1130.2;1149.97;1184732
1152.0;1179.91;1151.57;1179.26;1501633
1182.3;1205.71;1182.3;1197.25;2110979
1205.93;1207.1234;1197.91;1199.06;1294354
1199.02;1204.7;1191.23;1192.53;1365072
1198.0;1201.725;1187.01;1190.3;2593338
1189.69;1194.95;1181.4762;1188.55;1222203
1191.72;1203.405;1189.4564;1202.46;1489407
1201.4;1229.99;1199.59;1226.43;2075442
1220.0;1236.44;1216.575;1236.13;1407480
1228.85;1233.63;1206.0001;1207.65;1721133
1199.56;1209.44;1190.0034;1197.38;1378849
1205.19;1207.65;1181.76;1189.84;1537606
1191.92;1191.92;1164.23;1178.01;1471402
1175.5;1177.25;1163.43;1172.27;1120122
1180.18;1183.97;1166.38;1176.89;1544615
1187.54;1200.2;1186.36;1198.98;1385595
1200.05;1205.81;1191.24;1205.54;914413
1212.7;1220.6;1205.075;1210.81;1109614
1211.29;1220.55;1209.04;1219.45;1051089
1219.3;1220.39;1210.03;1211.45;1001044
1211.11;1213.95;1204.695;1208.28;1087588
1201.89;1207.15;1198.38;1202.69;983840
1205.09;1208.9377;1200.6609;1206.45;775456
1208.9;1212.74;1204.54;1209.59;849947
1215.62;1223.05;1213.29;1222.73;1215610
1224.09;1229.295;1214.56;1226.53;1189974
1230.0;1235.98;1225.04;1231.91;1131099
1237.0;1245.095;1232.9;1240.14;1518286
1245.0;1245.94;1239.41;1241.47;1237788
1236.67;1254.3405;1233.37;1253.76;954419
1256.64;1274.43;1251.975;1270.59;1593449
1270.59;1274.0;1259.81;1260.05;1169797
1270.3;1272.8;1258.0;1267.34;1567161
1273.38;1278.91;1265.0;1277.42;1361419
1280.51;1296.975;1271.71;1296.2;3618362
1190.63;1200.9777;1183.0;1198.96;6658855
1197.5;1199.25;1171.675;1173.32;3717018
1172.6;1179.38;1158.33;1166.51;2254890
1177.41;1191.4;1173.545;1189.55;2079376
1172.0;1195.43;1171.155;1193.46;1588684
1185.81;1194.77;1165.0;1178.86;1830238
1177.29;1184.27;1167.63;1170.78;1276022
1162.6;1174.07;1154.64;1167.97;1477752
1168.84;1176.28;1146.37;1167.64;1582460
1145.24;1151.97;1125.5;1136.59;2281686
1142.32;1144.865;1123.53;1124.86;2019550
1122.55;1178.3;1121.4;1170.8;2965117
1171.84;1194.16;1168.45;1184.5;1765388
1175.83;1186.29;1166.42;1168.78;1268050
1153.0;1153.0;1138.135;1144.66;1530126
1154.48;1158.0;1143.31;1154.44;1028248
1151.25;1163.78;1151.0;1155.85;941279
1146.07;1150.05;1133.16;1145.34;1260657
1152.0;1154.36;1136.71;1138.61;927651
1141.48;1156.49;1138.67;1139.56;1047554
1132.7;1135.0;1111.95;1119.94;1811510
1120.15;1126.795;1115.9;1121.41;904419
1105.64;1113.4027;1103.35;1106.5;1579481
1066.93;1067.0;1027.03;1038.74;4844480
1044.49;1058.437;1036.03;1054.49;3025564
1055.0;1056.81;1033.0;1044.64;2349436
1046.21;1050.0;1035.51;1047.76;1451026
1054.28;1073.43;1051.15;1068.37;2191357
1077.0;1094.84;1075.2817;1082.76;1425464
1096.99;1104.005;1079.57;1081.04;1675817
1079.95;1082.52;1069.6;1079.1;1183650
1084.71;1096.59;1082.57;1091.01;1040661
1089.74;1094.76;1081.4752;1086.3;1229304
1089.1;1101.28;1088.0;1093.89;988491
1111.5;1118.78;1100.79;1105.24;1726312
1107.24;1109.43;1096.03;1104.51;1336015
1121.7;1122.72;1107.0;1113.2;1200908
1109.86;1126.57;1109.72;1125.37;2538872
1120.0;1123.57;1113.31;1116.7;1211893
1115.08;1115.7;1084.5998;1087.58;1582217
1091.0;1095.12;1073.6872;1080.32;1734873
1086.75;1088.465;1075.85;1076.63;1203914
1077.23;1082.8;1073.8;1082.8;1683568
1101.04;1108.59;1095.33;1100.0;1464449
1104.83;1112.89;1099.67;1112.6;1031919
1118.5;1127.9873;1114.85;1122.99;1007718
1119.37;1134.65;1117.5;1132.665;1489678
1125.87;1127.21;1111.76;1116.79;1494371
1110.32;1127.86;1107.15;1124.29;1473622
1132.32;1142.34;1130.66;1140.91;1535546
1146.16;1153.24;1139.53;1144.08;1300529
1142.93;1147.5;1138.56;1145.34;1093933
1145.34;1150.68;1140.0;1150.51;1058431
1146.73;1158.58;1146.73;1153.46;1267641
1150.92;1158.44;1146.62;1146.74;976894
1142.0;1148.17;1132.855;1147.24;1273769
1149.32;1151.58;1131.25;1131.55;1159153
1135.47;1140.02;1125.21;1139.21;1446757
1143.45;1148.86;1132.85;1148.05;1032438
1132.62;1145.455;1128.51;1139.73;1359956
1138.95;1143.591;1123.71;1135.94;2738139
1228.0;1268.394;1228.0;1245.22;6060795
1242.5;1248.995;1230.2;1241.84;2069127
1227.0;1236.91;1225.32;1228.0;1430775
1224.87;1234.91;1208.18;1218.2;1997999
1217.63;1236.298;1207.0;1211.78;1771271
1203.0;1209.5;1190.0;1196.32;1745450
1172.97;1176.88;1142.75;1154.75;2391972
1165.52;1181.4;1161.525;1171.08;1800707
1157.8;1179.87;1150.84;1175.91;1534347
1186.43;1206.28;1174.0;1206.19;1505848
1199.995;1204.46;1184.89;1188.9;1020945
1174.35;1203.29;1172.995;1174.5;1103243
1174.35;1205.43;1172.995;1196.73;1430240
1176.07;1182.79;1161.07;1164.25;1771501
1168.43;1176.42;1163.0;1169.32;1430715
1180.79;1183.84;1173.0;1179.21;1265187
1191.83;1209.39;1190.4;1200.44;1222854
1195.35;1198.0;1183.045;1183.53;1010566
1195.82;1200.5568;1187.92;1191.58;708272
1193.8;1198.78;1178.91;1191.52;867915
1185.17;1195.67;1150.0;1153.58;1813141
1159.45;1171.86;1154.845;1171.18;1058926
1183.0;1185.0;1164.5572;1170.82;1173489
1164.87;1178.5;1160.25;1173.75;840829
1186.42;1199.19;1185.28;1194.24;982098
1200.35;1200.35;1185.72;1190.53;903375
1181.85;1189.08;1163.715;1169.55;1296116
1179.45;1184.88;1171.53;1182.27;1065666
1193.66;1214.0;1192.69;1212.19;1320656
1209.14;1212.945;1203.26;1206.32;948580
1207.08;1220.55;1193.17;1205.27;1592958
1196.09;1210.0;1196.01;1205.7;1396077
1203.89;1222.47;1202.275;1220.0;1176066
1223.47;1242.415;1222.56;1234.97;1582230
1232.11;1241.05;1227.08;1240.03;1183762
1230.44;1239.02;1225.19;1231.63;1410880
1231.63;1235.0;1223.35;1229.88;1047201
1230.24;1236.24;1216.47;1232.65;892788
1232.32;1244.34;1232.31;1238.75;847002
1233.64;1242.8;1223.58;1229.84;1937743
1226.57;1239.68;1223.7825;1234.69;1197069
1240.0;1247.11;1210.6438;1218.33;1835712
1216.01;1248.02;1209.2;1245.94;1355162
1242.14;1244.67;1231.82;1242.29;1171577
1242.83;1244.99;1215.2;1225.95;1722481
1220.6;1227.405;1213.42;1221.14;1294609
1222.49;1232.8583;1205.55;1206.0;1282735
1196.5;1198.76;1172.63;1177.92;1674774
1183.34;1191.0;1163.14;1189.43;1469413
1194.29;1212.46;1190.97;1210.96;1228686
1207.0;1218.91;1204.36;1208.25;879020
1198.77;1206.8688;1189.48;1190.13;1032426
1201.33;1208.46;1198.115;1202.4;813216
1198.6;1215.62;1197.86;1209.47;668244
1224.03;1228.75;1213.6384;1215.71;1126452
1213.89;1225.88;1211.88;1217.77;683926
1221.5;1247.125;1220.92;1242.24;1527216
1241.81;1254.19;1238.53;1243.0;1151028
1251.4;1263.75;1249.87;1252.8;1063981
1254.69;1258.11;1240.14;1244.41;1582320
1248.7;1253.51;1239.99;1244.28;1030085
1244.48;1248.73;1239.85;1241.2;1281821
1240.21;1258.04;1240.21;1257.63;1176281
1259.11;1262.9;1252.35;1259.11;1140478
1252.0;1268.0;1249.15;1264.3;1355248
1275.0;1299.24;1272.31;1288.98;3271411
1276.0;1280.8;1255.61;1260.66;2632715
1255.15;1268.015;1250.65;1260.7;1460193
1260.0;1266.5157;1249.48;1258.8;1595154
1265.8;1273.0;1259.71;1272.25;1440607
1276.11;1292.5;1276.11;1289.61;1531622
1291.2;1297.24;1289.38;1291.44;1257427
1290.09;1292.99;1282.27;1291.01;1231265
1294.28;1322.65;1293.75;1306.94;2257005
1301.52;1317.11;1301.52;1309.0;1521892
1304.0;1304.9;1295.8701;1298.28;861860
1298.57;1309.35;1294.24;1297.21;1444342
1293.18;1302.52;1292.147;1296.18;936085
1295.0;1315.72;1293.94;1309.15;1450039
1315.05;1333.54;1311.89;1333.54;1964955
1332.34;1333.92;1316.16;1319.84;1399374
1326.63;1326.63;1311.77;1312.59;1093629
1311.36;1313.21;1289.21;1301.86;1445870
1299.25;1311.12;1290.75;1300.14;1277338
1303.0;1306.9;1289.3626;1293.67;1388912
1296.26;1310.41;1295.61;1305.64;1179658
1309.91;1314.01;1304.04;1313.0;1097089
1315.42;1317.64;1309.4742;1312.13;940536
1306.6;1309.95;1303.23;1304.09;640069
1302.56;1305.44;1280.38;1288.86;1328889
1278.66;1297.23;1277.05;1294.74;1480026
1306.1;1324.27;1303.0511;1318.94;1776392
1327.0;1327.98;1314.32;1326.96;1220631
1332.75;1342.47;1331.23;1339.39;1648729
1338.86;1357.553;1336.07;1342.99;1556889
1339.94;1348.0;1334.0;1342.89;880430
1348.3;1349.89;1341.1;1344.25;1024308
1343.21;1354.58;1338.2001;1348.49;1456466
1347.9;1351.35;1341.66;1346.87;1658684
1355.0;1363.53;1350.61;1360.7;1406457
1362.41;1364.33;1350.77;1354.89;1648549
1357.0;1359.43;1350.46;1351.91;1166733
1351.91;1357.5259;1348.7507;1356.44;1521082
1363.1;1364.0;1350.73;1351.22;2513849
1358.73;1361.854;1348.0;1350.63;996967
1350.21;1352.01;1344.165;1344.43;673410
1346.55;1363.2;1345.51;1362.47;1183800
1364.0;1367.07;1353.0;1354.64;1160873
1356.81;1357.0;1337.835;1339.71;1000592
1335.79;1340.66;1332.13;1339.39;976061
1348.41;1368.68;1346.49;1368.68;1364265
1348.0;1373.75;1347.3236;1361.52;1170629
1351.63;1398.32;1351.0;1397.81;2339343
1400.46;1403.5;1391.555;1395.11;1726456
1394.82;1411.85;1392.63;1405.04;1766274
1421.93;1428.68;1410.21;1419.79;1661438
1429.47;1434.9399;1419.5977;1428.96;1313178
1435.25;1441.48;1425.37;1440.03;1537317
1440.0;1442.63;1427.77;1430.59;1305636
1433.02;1440.78;1431.66;1439.2;1077519
1445.45;1450.7;1440.0;1450.16;1304040
1462.54;1480.55;1456.55;1479.52;2621175
1479.0;1489.8845;1470.21;1482.25;2446601
1489.73;1500.5812;1482.6614;1484.17;1422946
1487.55;1493.5;1480.32;1484.69;1332562
1492.82;1494.2;1463.1796;1466.17;1489280
1431.54;1436.58;1419.5;1431.73;1706566
1441.74;1454.8;1430.36;1450.5;1486586
1458.46;1464.14;1445.385;1456.7;1081964
1438.1;1455.25;1435.0;1454.25;1355472
1467.86;1469.67;1427.06;1432.78;2191075
1461.65;1486.3;1456.61;1482.6;3608760
1454.49;1467.335;1422.03;1445.41;4793967
1463.61;1464.58;1429.675;1446.05;1818793
1451.98;1481.56;1450.48;1475.97;1891079
1467.385;1485.245;1465.41;1479.11;1418049
1477.23;1508.88;1475.2;1508.66;1915072
1513.27;1529.8799;1505.4501;1510.06;1742647
1515.86;1520.3;1508.67;1518.63;1552136
1510.0;1525.946;1504.0;1513.39;1145658
1514.53;1520.05;1505.55;1518.73;1159857
1514.34;1530.555;1511.01;1519.44;1284011
1527.2;1530.74;1520.976;1524.87;1137338
1519.01;1527.07;1504.255;1516.99;1298386
1504.58;1510.945;1478.49;1483.46;2126843
1423.05;1436.38;1406.79;1419.86;2478039
1431.0;1436.847;1380.42;1386.32;2578966
1394.98;1413.67;1376.5501;1390.47;2490178
1359.14;1369.4;1314.24;1314.95;3114476
1274.31;1342.45;1268.21;1339.25;4010900
1351.39;1387.47;1325.2;1386.32;2771463
1397.68;1408.19;1329.2421;1337.72;2830112
1358.96;1382.78;1337.0;1381.6;2379856
1345.55;1353.63;1301.64;1314.76;2718982
1269.95;1302.75;1257.21;1295.74;3232315
1204.96;1252.73;1198.04;1215.79;3462578
1254.39;1275.85;1214.51;1275.17;2743566
1248.27;1256.93;1191.14;1210.9;2741694
1122.62;1188.75;1108.47;1111.55;4716293
1174.99;1214.4;1112.29;1214.27;3969973
1089.61;1145.47;1067.0801;1073.0;4825981
1090.64;1126.0;1049.1;1118.06;4159686
1059.94;1104.99;1037.0;1091.19;4652238
1088.22;1152.61;1055.55;1111.67;3703248
1130.9;1138.4783;1062.1;1068.21;4143897
1056.37;1066.91;1008.87;1054.13;4183629
1103.98;1133.33;1086.43;1130.01;3623435
1124.58;1146.17;1083.01;1101.62;4516162
1114.72;1171.48;1092.03;1162.92;3834422
1127.47;1151.05;1104.0027;1110.26;3139661
1132.64;1151.0;1098.4901;1146.31;2936827
1148.73;1173.4;1136.72;1161.95;3263971
1124.0;1129.42;1093.49;1102.1;2598519
1100.0;1122.77;1093.13;1117.03;2820534
1114.71;1118.79;1075.08;1092.7;2568694
1133.0;1190.7547;1125.0;1183.19;3165991
1217.01;1220.775;1177.25;1182.56;3080955
1203.1;1214.9;1183.954;1207.0;2016713
1218.18;1221.99;1192.4166;1206.57;2701423
1201.5;1214.5199;1182.3318;1210.41;1935128
1239.9735;1275.7499;1228.5413;1265.23;3167862
1246.51;1275.1099;1234.0;1257.3;2111842
1267.14;1273.3586;1238.2;1257.43;2894757
1281.7;1290.0;1266.0;1279.0;2552824
1269.89;1276.82;1256.44;1261.15;1764608
1242.71;1250.0;1205.0;1212.16;2482404
1241.11;1279.88;1237.2;1258.41;2315792
1265.74;1288.15;1260.5301;1271.17;1710122
1255.0;1277.71;1244.0;1276.6;1872004
1292.0;1294.1;1265.06;1270.86;2209333
1283.2;1284.76;1230.38;1232.59;4035007
1345.0;1360.15;1326.73;1342.18;5417888
1331.36;1350.0;1321.5;1346.7;2792124
1324.09;1351.43;1309.66;1317.32;2443554
1308.13;1324.47;1296.01;1322.9;1540347
1337.5;1371.01;1335.03;1349.02;1983318
1358.0;1368.69;1345.13;1345.43;1586629
1361.31;1375.9999;1352.5406;1369.28;1535819
1381.82;1396.64;1372.01;1384.34;1666487
1376.79;1415.53;1375.5;1403.59;1635856
1408.22;1414.33;1374.51;1375.18;1695874
1376.16;1385.33;1328.01;1348.33;2018404
1333.52;1357.37;1323.3;1356.86;1833017
1348.26;1374.58;1339.0;1373.06;2077199
1361.58;1392.76;1354.2;1385.18;2356449
1385.48;1392.49;1373.76;1374.4;1579250
1389.16;1412.026;1387.4193;1409.16;1913133
1410.99;1416.46;1394.39;1406.75;1544976
1403.9;1417.0;1395.95;1413.24;1427206
1441.96;1445.11;1419.395;1421.37;2229488
1420.0;1425.345;1394.6;1420.28;1584185
1400.0;1444.46;1399.076;1418.24;1759787
1420.43;1436.73;1415.98;1433.52;1852522
1425.7;1441.58;1422.28;1434.87;1259254
1435.0;1443.0;1421.61;1442.31;1172069
1442.7;1449.01;1431.62;1439.25;1386640
1436.78;1441.32;1406.01;1414.3;1349105
1415.64;1446.3;1407.6213;1440.02;2132350
1426.28;1449.0;1424.48;1448.04;1693881
1445.24;1467.8;1442.36;1452.08;1681155
1461.51;1472.77;1454.355;1464.7;1588116
1441.03;1451.6033;1398.41;1401.9;2357243
1425.86;1434.505;1385.8;1412.92;1833756
1389.49;1425.0;1387.1952;1420.74;1527652
1449.0;1457.17;1428.99;1446.47;1534826
1452.94;1462.2;1435.125;1452.54;1530500
1449.85;1452.9699;1426.235;1434.12;1743071
1440.0;1444.5;1419.0;1424.64;2639167
1425.01;1450.95;1419.19;1450.66;1472072
1452.0;1475.2;1445.0;1463.98;1887583
1463.28;1475.79;1430.0;1432.7;1579579
1431.22;1442.32;1419.5401;1441.1;1197907
1432.63;1437.02;1355.0;1362.54;4882014
1360.34;1398.0;1351.65;1397.17;2253678
1396.88;1424.0;1386.9301;1418.05;2014320
1419.17;1448.48;1414.18;1442.0;2109124
1451.84;1488.52;1451.065;1469.93;2860915
1488.15;1510.0;1476.976;1499.65;2235630
1496.13;1521.32;1489.7;1489.92;2118194
1500.8;1511.17;1492.3;1503.6;1588292
1509.93;1529.1412;1495.59;1518.66;2091833
1513.25;1541.34;1500.72;1539.01;1796063
1549.94;1576.36;1506.56;1512.23;2147728
1492.79;1522.8;1485.925;1520.86;1905400
1523.23;1536.33;1497.83;1516.88;1551325
1501.5;1515.91;1488.27;1514.92;1324227
1516.91;1523.43;1498.1;1516.85;1713231
1515.0;1569.01;1502.6961;1563.84;1508277
1585.03;1587.05;1552.62;1555.92;1377718
1555.71;1566.98;1543.23;1564.85;1224100
1565.93;1570.35;1508.59;1516.75;1695498
1499.19;1515.4273;1487.59;1508.21;1495381
1513.26;1537.56;1512.33;1529.43;1356185
1525.0;1526.01;1500.52;1503.65;1545534
1505.0;1533.33;1503.01;1523.51;1133773
1497.97;1540.89;1495.17;1538.37;1802121
1497.05;1505.02;1454.0;1487.95;4576382
1491.0;1497.73;1471.72;1482.76;2276085
1486.71;1493.11;1464.03;1473.3;1860609
1476.82;1490.0;1471.215;1479.09;1457518
1476.15;1506.27;1471.9;1504.95;1665261
1509.04;1520.09;1486.27;1498.37;1386294
1490.8;1507.15;1477.4901;1496.82;1027329
1494.0;1510.44;1478.19;1480.54;1554853
1487.1245;1511.67;1485.0;1507.24;1126560
1508.21;1536.9744;1508.21;1516.65;1119711
1513.61;1519.785;1499.0;1504.63;1097059
1515.97;1523.78;1505.0;1516.24;999934
1526.12;1557.37;1521.665;1555.78;1418850
1552.49;1568.86;1540.0;1544.61;1523592
1539.97;1580.17;1534.46;1576.25;1319131
1571.8;1591.88;1562.31;1575.57;1742275
1592.47;1608.78;1575.04;1585.15;1281893
1580.1;1608.88;1577.88;1605.85;1257463
1606.3;1652.79;1600.9754;1644.13;2609363
1646.61;1647.99;1618.8137;1628.52;1567503
1629.47;1641.35;1625.605;1639.43;1121195
1643.57;1644.5;1625.33;1629.53;1321097
1632.16;1659.22;1629.53;1655.08;1133766
1668.01;1726.1022;1660.19;1717.39;2476072
1699.52;1700.0;1607.71;1629.51;3186287
1609.0;1634.99;1537.9701;1581.21;2792533
1525.0;1555.55;1516.5;1523.6;2701586
1548.9;1558.72;1525.17;1547.23;1962078
1550.18;1573.66;1520.0;1526.05;1651194
1528.15;1538.695;1493.02;1515.76;1535337
1531.6471;1557.0;1505.11;1508.83;2133007
1527.89;1550.99;1522.1;1535.12;1152055
1542.48;1554.37;1511.59;1512.09;1107169
1485.81;1498.66;1462.46;1487.04;2000356
1488.3;1495.2;1431.62;1451.09;3152788
1431.62;1440.06;1402.68;1430.14;2845405
1450.32;1463.97;1429.495;1459.82;1697542
1452.09;1453.08;1402.68;1409.39;1886299
1402.68;1437.99;1402.15;1422.86;1727611
1425.05;1445.94;1407.68;1439.06;1516677
1471.99;1472.99;1446.28;1458.66;1539236
1463.91;1472.0;1454.0;1466.02;1591112
1460.935;1486.1975;1455.755;1465.6;2046170
1483.6608;1495.07;1476.8;1487.9;1644221
1459.63;1479.03;1447.35;1455.6;1561132
1462.65;1484.7;1460.09;1482.83;1080058
1475.5;1484.52;1445.01;1451.02;1304752
1459.31;1468.97;1433.23;1459.14;1805448
1465.45;1488.0275;1465.45;1483.43;1303802
1492.86;1511.85;1487.0;1510.45;1648340
1538.0;1588.42;1529.3;1564.59;2767164
1577.01;1585.16;1558.63;1567.07;1953609
1574.6;1583.85;1545.895;1563.44;1659228
1544.5;1571.395;1541.1301;1555.47;1561485
1561.83;1577.71;1557.66;1567.7;1710325
1575.93;1583.925;1522.92;1529.95;1486652
1523.11;1573.84;1520.5;1551.08;2085915
1569.85;1615.14;1567.135;1585.99;3016053
1585.0;1613.42;1577.48;1606.66;1525773
1615.05;1634.12;1611.91;1632.98;1527402
1615.0;1629.58;1567.78;1584.29;1791317
1588.9319;1602.0;1576.99;1598.88;1295138
1550.01;1553.81;1508.48;1510.8;2258675
1517.02;1588.735;1516.55;1556.88;2770343
1667.44;1681.315;1601.57;1616.11;4996197
1623.54;1658.24;1614.24;1624.32;2211449
1630.76;1659.0;1612.108;1645.66;1571641
1705.5803;1770.03;1703.0;1745.85;3567149
1770.45;1791.818;1741.03;1762.5;1987907
1751.34;1768.495;1736.68;1759.73;1431084
1795.98;1816.89;1757.545;1761.42;2672024
1729.77;1759.38;1716.12;1737.72;2151058
1748.4;1762.9;1743.06;1747.23;1591906
1742.0;1764.98;1737.97;1742.82;1324363
1748.0;1777.13;1735.98;1772.26;1487877
1764.14;1794.34;1761.33;1774.03;1273393
1767.86;1777.14;1759.49;1761.66;1066034
1756.64;1765.0;1738.5658;1740.64;1005377
1733.23;1763.49;1730.02;1758.57;1005340
1762.0;1768.3625;1735.0;1736.38;1385322
1740.22;1745.99;1710.18;1727.56;1127618
1727.5;1766.475;1720.73;1763.9;1400306
1767.81;1770.38;1748.36;1764.13;979957
1764.54;1797.01;1764.54;1787.02;739507
1775.65;1780.335;1747.84;1754.4;1620887
1766.655;1821.7199;1763.03;1795.36;1868134
1795.36;1832.74;1785.1695;1824.97;1471235
1820.54;1843.83;1817.0;1821.84;1236366
1820.22;1829.4994;1813.59;1823.76;1027242
1815.55;1829.29;1803.04;1817.03;1114391
1808.52;1815.97;1791.28;1811.33;996768
1810.36;1828.37;1762.0001;1777.86;1586426
1762.6;1774.99;1733.527;1767.65;1434416
1760.0;1777.31;1752.74;1774.8;931431
1770.72;1789.8;1749.13;1752.26;1652471
1759.86;1764.0;1741.67;1761.08;1068292
1769.11;1769.11;1749.06;1757.19;1233836
1763.93;1766.71;1731.15;1740.51;1744005
1746.1702;1748.36;1715.0;1726.22;4262837
1709.13;1737.0;1694.0;1734.56;1698707
1729.33;1732.6123;1705.78;1720.22;1018829
1723.93;1744.11;1721.2;1728.23;1148684
1729.0;1742.41;1724.35;1734.16;465638
1744.91;1787.0;1741.82;1773.96;1382537
1787.23;1788.47;1755.11;1757.76;986287
1765.0;1767.76;1728.0;1736.25;1051308
1737.27;1757.5;1736.09;1752.64;1053479
